{
    "name": "python3-vulkan",
    "buildsystem": "simple",
    "build-commands": [
        "pip3 install --verbose --exists-action=i --no-index --find-links=\"file://${PWD}\" --prefix=${FLATPAK_DEST} \"vulkan\" --no-build-isolation"
    ],
    "sources": [
        {
            "type": "file",
            "url": "https://files.pythonhosted.org/packages/2b/a8/050ab4f0c3d4c1b8aaa805f70e26e84d0e27004907c5b8ecc1d31815f92a/cffi-1.15.1.tar.gz",
            "sha256": "d400bfb9a37b1351253cb402671cea7e89bdecc294e8016a707f6d1d8ac934f9"
        },
        {
            "type": "file",
            "url": "https://files.pythonhosted.org/packages/62/d5/5f610ebe421e85889f2e55e33b7f9a6795bd982198517d912eb1c76e1a53/pycparser-2.21-py2.py3-none-any.whl",
            "sha256": "8ee45429555515e1f6b185e78100aea234072576aa43ab53aefcae078162fca9"
        },
        {
            "type": "file",
            "url": "https://files.pythonhosted.org/packages/82/2b/4ffb67f251cba6a39a0899b1a0042f2d31d8b8f57aa5d0707ba2bf36fce3/vulkan-1.1.99.1.tar.gz",
            "sha256": "4befc458dceac21a9664f628a228283812094cadaed5dbbc1cb2abb532523b7f"
        }
    ]
}